{
    "classes": [
        "askdataset",
        "pto_balance",
        "oil_change_when",
        "balance",
        "measurement_conversion",
        "spending_history",
        "order",
        "reminder",
        "new_card",
        "find_phone",
        "food_last",
        "ingredients_list",
        "play_music",
        "tire_change",
        "interest_rate",
        "oos",
        "order_status",
        "improve_credit_score",
        "who_made_you",
        "restaurant_suggestion",
        "jump_start",
        "shopping_list",
        "where_are_you_from",
        "order_checks",
        "pin_change",
        "book_flight",
        "report_lost_card",
        "replacement_card_duration",
        "what_is_your_name",
        "thank_you",
        "calculator",
        "exchange_rate",
        "how_old_are_you",
        "definition",
        "credit_limit_change",
        "spelling",
        "repeat",
        "bill_balance",
        "pto_request",
        "cook_time",
        "shopping_list_update",
        "confirm_reservation",
        "gas_type",
        "vaccines",
        "card_declined",
        "nutrition_info",
        "apr",
        "compliment",
        "insurance_change",
        "bill_due",
        "text",
        "redeem_rewards",
        "greeting",
        "min_payment",
        "what_can_i_ask_you",
        "calendar_update",
        "weather",
        "timezone",
        "plug_type",
        "directions",
        "carry_on",
        "lost_luggage",
        "calendar",
        "reset_settings",
        "tell_joke",
        "schedule_maintenance",
        "calories",
        "application_status",
        "pay_bill",
        "insult",
        "damaged_card",
        "expiration_date",
        "whisper_mode",
        "report_fraud",
        "account_blocked",
        "car_rental",
        "share_location",
        "gas",
        "what_are_your_hobbies",
        "meeting_schedule",
        "wikiq",
        "change_ai_name",
        "income",
        "accept_reservations",
        "pto_request_status",
        "fun_fact",
        "freeze_account",
        "recipe",
        "rewards_balance",
        "what_song",
        "roll_dice",
        "next_holiday",
        "rollover_401k",
        "meaning_of_life",
        "date",
        "payday",
        "next_song",
        "reminder_update",
        "sync_device",
        "traffic",
        "schedule_meeting",
        "transfer",
        "credit_score",
        "taxes",
        "book_hotel",
        "transactions",
        "w2",
        "flip_coin",
        "update_playlist",
        "maybe",
        "distance",
        "todo_list_update",
        "change_user_name",
        "make_call",
        "how_busy",
        "timer",
        "no",
        "ingredient_substitution",
        "oil_change_how",
        "current_location",
        "restaurant_reviews",
        "do_you_have_pets",
        "travel_suggestion",
        "goodbye",
        "translate",
        "insurance",
        "international_visa",
        "routing",
        "user_name",
        "travel_notification",
        "credit_limit",
        "todo_list",
        "change_volume",
        "pto_used",
        "direct_deposit",
        "who_do_you_work_for",
        "change_speed",
        "change_accent",
        "meal_suggestion",
        "travel_alert",
        "yes",
        "international_fees",
        "flight_status",
        "tire_pressure",
        "restaurant_reservation",
        "cancel_reservation",
        "change_language",
        "time",
        "are_you_a_bot",
        "alarm",
        "mpg",
        "smart_home",
        "cancel",
        "specquest",
        "uber",
        "last_maintenance"
    ]
}